# INVALID_LINE: {\"content\":{\"key1\":\"value1\",\"key2\":{\"key2.1\":\"value2.1\",\"key2.2\":\"value2.1\"},\"key3\":\"Value3\"},\"note\": \"note content\"}

# INVALID_LINE: {\"content\":{\"key1\":\"value1\",\"key2\":{\"key2.1\":\"value2.1\",\"key2.2\":\"value2.1\"},\"key3\":\"Value3\"},\"note\": \"note content\"}

# INVALID_LINE: {\"content\":{\"key1\":\"value1\",\"key2\":{\"key2.1\":\"value2.1\",\"key2.2\":\"value2.1\"},\"key3\":\"Value3\"},\"at\":\"Mon Jul 07 10:28:19  2014\"}

# INVALID_LINE: ERROR: could not render object: no such field!

# INVALID_LINE: {\"content\":{\"key1\":\"value1\",\"key2\":{\"key2.1\":\"value2.1\",\"key2.2\":\"value2.1\"},\"key3\":\"Value3\"},\"note\": \"note content\"}

# INVALID_LINE: {\"content\":{\"key1\":\"value1\",\"key2\":{\"key2.1\":\"value2.1\",\"key2.2\":\"value2.1\"},\"key3\":\"Value3\"},\"note\": \"note content\"}

# INVALID_LINE: ERROR: could not render object: no such field!

# INVALID_LINE: ERROR: could not render object: no such field!

# INVALID_LINE: ERROR: could not render object: no such field!

# INVALID_LINE: {\"content\":{\"key1\":\"value1\",\"key2\":{\"key2.1\":\"value2.1\",\"key2.2\":\"value2.1\"},\"key3\":\"Value3\"},\"at\":\"Mon Jul 07 10:28:22  2014\"}

# INVALID_LINE: ERROR: could not render object: no such field!

# INVALID_LINE: {\"content\":{\"key1\":\"value1\",\"key2\":{\"key2.1\":\"value2.1\",\"key2.2\":\"value2.1\"},\"key3\":\"Value3\"},\"note\": \"note content\"}

# INVALID_LINE: {\"content\":{\"key1\":\"value1\",\"key2\":{\"key2.1\":\"value2.1\",\"key2.2\":\"value2.1\"},\"key3\":\"Value3\"},\"note\": \"note content\"}

# INVALID_LINE: ERROR: could not render object: no such field!

# INVALID_LINE: {\"content\":{\"key1\":\"value1\",\"key2\":{\"key2.1\":\"value2.1\",\"key2.2\":\"value2.1\"},\"key3\":\"Value3\"},\"at\":\"Mon Jul 07 10:28:25  2014\"}

# INVALID_LINE: {\"content\":{\"key1\":\"value1\",\"key2\":{\"key2.1\":\"value2.1\",\"key2.2\":\"value2.1\"},\"key3\":\"Value3\"},\"note\": \"note content\"}

# INVALID_LINE: ERROR: could not render object: no such field!

# INVALID_LINE: {\"content\":{\"key1\":\"value1\",\"key2\":{\"key2.1\":\"value2.1\",\"key2.2\":\"value2.1\"},\"key3\":\"Value3\"},\"note\": \"note content\"}

# INVALID_LINE: {\"content\":{\"key1\":\"value1\",\"key2\":{\"key2.1\":\"value2.1\",\"key2.2\":\"value2.1\"},\"key3\":\"Value3\"},\"note\": \"note content\"}

# INVALID_LINE: ERROR: could not render object: no such field!

# INVALID_LINE: {\"content\":{\"key1\":\"value1\",\"key2\":{\"key2.1\":\"value2.1\",\"key2.2\":\"value2.1\"},\"key3\":\"Value3\"},\"note\": \"note content\"}

# INVALID_LINE: {\"content\":{\"key1\":\"value1\",\"key2\":{\"key2.1\":\"value2.1\",\"key2.2\":\"value2.1\"},\"key3\":\"Value3\"},\"note\": \"note content\"}

# INVALID_LINE: {\"content\":{\"key1\":\"value1\",\"key2\":{\"key2.1\":\"value2.1\",\"key2.2\":\"value2.1\"},\"key3\":\"Value3\"},\"note\": \"note content\"}

# INVALID_LINE: ERROR: could not render object: no such field!

# INVALID_LINE: {\"content\":{\"key1\":\"value1\",\"key2\":{\"key2.1\":\"value2.1\",\"key2.2\":\"value2.1\"},\"key3\":\"Value3\"},\"note\": \"note content\"}

# INVALID_LINE: {\"content\":{\"key1\":\"value1\",\"key2\":{\"key2.1\":\"value2.1\",\"key2.2\":\"value2.1\"},\"key3\":\"Value3\"},\"at\":\"Mon Jul 07 10:28:30  2014\"}

# INVALID_LINE: {\"content\":{\"key1\":\"value1\",\"key2\":{\"key2.1\":\"value2.1\",\"key2.2\":\"value2.1\"},\"key3\":\"Value3\"},\"at\":\"Mon Jul 07 10:28:31  2014\"}

# INVALID_LINE: ERROR: could not render object: no such field!

# INVALID_LINE: ERROR: could not render object: no such field!

